EESchema Schematic File Version 2
LIBS:power
LIBS:device
LIBS:switches
LIBS:relays
LIBS:motors
LIBS:transistors
LIBS:conn
LIBS:linear
LIBS:regul
LIBS:74xx
LIBS:cmos4000
LIBS:adc-dac
LIBS:memory
LIBS:xilinx
LIBS:microcontrollers
LIBS:dsp
LIBS:microchip
LIBS:analog_switches
LIBS:motorola
LIBS:texas
LIBS:intel
LIBS:audio
LIBS:interface
LIBS:digital-audio
LIBS:philips
LIBS:display
LIBS:cypress
LIBS:siliconi
LIBS:opto
LIBS:atmel
LIBS:contrib
LIBS:valves
LIBS:suf_led_driver
LIBS:suf_led_display
LIBS:suf_conn
LIBS:suf_opto
LIBS:lightronome-board-cache
EELAYER 25 0
EELAYER END
$Descr A4 11693 8268
encoding utf-8
Sheet 1 1
Title ""
Date ""
Rev ""
Comp ""
Comment1 ""
Comment2 ""
Comment3 ""
Comment4 ""
$EndDescr
$Comp
L ATTINY85-20SU U1
U 1 1 5A5C63DF
P 3400 1900
F 0 "U1" H 2250 2300 50  0000 C CNN
F 1 "ATTINY85-20SU" H 4400 1500 50  0000 C CNN
F 2 "Housings_SOIC:SOIJ-8_5.3x5.3mm_Pitch1.27mm" H 4350 1900 50  0001 C CIN
F 3 "" H 3400 1900 50  0001 C CNN
	1    3400 1900
	1    0    0    -1  
$EndComp
$Comp
L TM1637 U2
U 1 1 5A5C641B
P 7275 2325
F 0 "U2" H 6925 3275 50  0000 C CNN
F 1 "TM1637" H 7025 1375 50  0000 C CNN
F 2 "Housings_SOIC:SOIC-20W_7.5x12.8mm_Pitch1.27mm" H 7325 2575 60  0001 C CNN
F 3 "" H 7325 2575 60  0001 C CNN
	1    7275 2325
	1    0    0    1   
$EndComp
$Comp
L BA56-12EWA DS1
U 1 1 5A5E60EF
P 8675 2275
F 0 "DS1" V 8199 2075 50  0000 L BNN
F 1 "BA56-12EWA" V 9227 2074 50  0000 L BNN
F 2 "suf_led_display:BA56-12EWA" H 8675 2275 50  0001 L BNN
F 3 "BA56-12EWA" H 8675 2275 50  0001 L BNN
F 4 "2.13 USD" H 8675 2275 50  0001 L BNN "Field4"
F 5 "Good" H 8675 2275 50  0001 L BNN "Field5"
F 6 "DIP-12 Kingbright" H 8675 2275 50  0001 L BNN "Field6"
F 7 "Kingbright" H 8675 2275 50  0001 L BNN "Field7"
F 8 "DISPLAY 627NM RED 3DIG 0.56 TH" H 8675 2275 50  0001 L BNN "Field8"
	1    8675 2275
	1    0    0    -1  
$EndComp
$Comp
L LED_RGB D2
U 1 1 5A5E653D
P 10100 2250
F 0 "D2" H 10100 2620 50  0000 C CNN
F 1 "LED_RGB" H 10100 1900 50  0000 C CNN
F 2 "LEDs:LED_RGB_5050-6" H 10100 2200 50  0001 C CNN
F 3 "" H 10100 2200 50  0001 C CNN
	1    10100 2250
	0    -1   -1   0   
$EndComp
$Comp
L LED_RGB D1
U 1 1 5A5E65AC
P 10100 1600
F 0 "D1" H 10100 1970 50  0000 C CNN
F 1 "LED_RGB" H 10100 1250 50  0000 C CNN
F 2 "LEDs:LED_RGB_5050-6" H 10100 1550 50  0001 C CNN
F 3 "" H 10100 1550 50  0001 C CNN
	1    10100 1600
	0    -1   -1   0   
$EndComp
$Comp
L LED_RGB D3
U 1 1 5A5E684A
P 10100 2900
F 0 "D3" H 10100 3270 50  0000 C CNN
F 1 "LED_RGB" H 10100 2550 50  0000 C CNN
F 2 "LEDs:LED_RGB_5050-6" H 10100 2850 50  0001 C CNN
F 3 "" H 10100 2850 50  0001 C CNN
	1    10100 2900
	0    -1   -1   0   
$EndComp
$Comp
L LED_RGB D4
U 1 1 5A5E6898
P 10100 3550
F 0 "D4" H 10100 3920 50  0000 C CNN
F 1 "LED_RGB" H 10100 3200 50  0000 C CNN
F 2 "LEDs:LED_RGB_5050-6" H 10100 3500 50  0001 C CNN
F 3 "" H 10100 3500 50  0001 C CNN
	1    10100 3550
	0    -1   -1   0   
$EndComp
$Comp
L SW_Push SW3
U 1 1 5A5E7719
P 8925 3575
F 0 "SW3" H 8975 3675 50  0000 L CNN
F 1 "SW_Push" H 8925 3515 50  0000 C CNN
F 2 "Buttons_Switches_SMD:SW_SPST_EVQQ2" H 8925 3775 50  0001 C CNN
F 3 "" H 8925 3775 50  0001 C CNN
	1    8925 3575
	0    1    1    0   
$EndComp
$Comp
L SW_Push SW4
U 1 1 5A5E78AF
P 9275 3575
F 0 "SW4" H 9325 3675 50  0000 L CNN
F 1 "SW_Push" H 9275 3515 50  0000 C CNN
F 2 "Buttons_Switches_SMD:SW_SPST_EVQQ2" H 9275 3775 50  0001 C CNN
F 3 "" H 9275 3775 50  0001 C CNN
	1    9275 3575
	0    1    1    0   
$EndComp
$Comp
L SW_Push SW2
U 1 1 5A5E7965
P 8550 3575
F 0 "SW2" H 8600 3675 50  0000 L CNN
F 1 "SW_Push" H 8550 3515 50  0000 C CNN
F 2 "Buttons_Switches_SMD:SW_SPST_EVQQ2" H 8550 3775 50  0001 C CNN
F 3 "" H 8550 3775 50  0001 C CNN
	1    8550 3575
	0    1    1    0   
$EndComp
$Comp
L SW_Push SW1
U 1 1 5A5E79BD
P 8125 3575
F 0 "SW1" H 8175 3675 50  0000 L CNN
F 1 "SW_Push" H 8125 3515 50  0000 C CNN
F 2 "Buttons_Switches_SMD:SW_SPST_EVQQ2" H 8125 3775 50  0001 C CNN
F 3 "" H 8125 3775 50  0001 C CNN
	1    8125 3575
	0    1    1    0   
$EndComp
$Comp
L TLP185(SE U3
U 1 1 5A5E8073
P 9125 4325
F 0 "U3" H 8925 4525 50  0000 L CNN
F 1 "TLP185(SE" H 9125 4525 50  0000 L CNN
F 2 "suf_housings_SO:SO-4_4.4x3.6mm_Pitch1.27mm_6P" H 8925 4125 50  0001 L CIN
F 3 "" H 9125 4325 50  0001 L CNN
	1    9125 4325
	-1   0    0    -1  
$EndComp
$Comp
L TLP185(SE U4
U 1 1 5A5E8114
P 9125 4775
F 0 "U4" H 8925 4975 50  0000 L CNN
F 1 "TLP185(SE" H 9125 4975 50  0000 L CNN
F 2 "suf_housings_SO:SO-4_4.4x3.6mm_Pitch1.27mm_6P" H 8925 4575 50  0001 L CIN
F 3 "" H 9125 4775 50  0001 L CNN
	1    9125 4775
	-1   0    0    -1  
$EndComp
Wire Wire Line
	7825 2875 8375 2875
Wire Wire Line
	8375 2675 8375 4425
Wire Wire Line
	7825 2775 8475 2775
Wire Wire Line
	8475 2675 8475 3100
Wire Wire Line
	7825 2675 7850 2675
Wire Wire Line
	7850 2675 7850 2725
Wire Wire Line
	7850 2725 9525 2725
Wire Wire Line
	8575 2725 8575 2675
Wire Wire Line
	7825 2575 7900 2575
Wire Wire Line
	7900 2575 7900 2825
Wire Wire Line
	7900 2825 9475 2825
Wire Wire Line
	8675 2825 8675 2675
Wire Wire Line
	7825 2475 7950 2475
Wire Wire Line
	7950 2475 7950 2925
Wire Wire Line
	7950 2925 8775 2925
Wire Wire Line
	8775 2925 8775 2675
Wire Wire Line
	7825 2375 8000 2375
Wire Wire Line
	8000 2375 8000 2975
Wire Wire Line
	8000 2975 8875 2975
Wire Wire Line
	8875 2975 8875 2675
Wire Wire Line
	7825 2275 8050 2275
Wire Wire Line
	8050 2275 8050 3025
Wire Wire Line
	8050 3025 8975 3025
Wire Wire Line
	8975 3025 8975 2675
Wire Wire Line
	7825 2175 8175 2175
Wire Wire Line
	8175 2175 8175 1875
Wire Wire Line
	8175 1875 8375 1875
Wire Wire Line
	7825 1475 8975 1475
Wire Wire Line
	8975 1475 8975 1875
Wire Wire Line
	7825 1575 8875 1575
Wire Wire Line
	8875 1575 8875 1875
Wire Wire Line
	7825 1675 8775 1675
Wire Wire Line
	8775 1675 8775 1875
Wire Wire Line
	9900 1400 9900 1350
Wire Wire Line
	9900 1350 9675 1350
Wire Wire Line
	9675 1350 9675 3350
Wire Wire Line
	9900 2050 9675 2050
Connection ~ 9675 2050
Wire Wire Line
	10100 2050 10100 2000
Wire Wire Line
	10100 2000 9625 2000
Wire Wire Line
	9625 1300 9625 3300
Wire Wire Line
	9625 1300 10100 1300
Wire Wire Line
	10100 1300 10100 1400
Wire Wire Line
	10300 1400 10300 1250
Wire Wire Line
	10300 1250 9575 1250
Wire Wire Line
	9575 1250 9575 3250
Wire Wire Line
	9575 1950 10300 1950
Wire Wire Line
	10300 1950 10300 2050
Wire Wire Line
	10300 2700 10300 2600
Wire Wire Line
	10300 2600 9575 2600
Connection ~ 9575 1950
Wire Wire Line
	10100 2700 10100 2650
Wire Wire Line
	10100 2650 9625 2650
Connection ~ 9625 2000
Wire Wire Line
	9900 2700 9675 2700
Connection ~ 9675 2700
Wire Wire Line
	10300 3350 10300 3250
Wire Wire Line
	10300 3250 9575 3250
Connection ~ 9575 2600
Wire Wire Line
	10100 3350 10100 3300
Wire Wire Line
	10100 3300 9625 3300
Connection ~ 9625 2650
Wire Wire Line
	9675 3350 9900 3350
Wire Wire Line
	9525 3750 10300 3750
Connection ~ 8375 2875
Connection ~ 9900 3750
Connection ~ 10100 3750
Wire Wire Line
	8475 3100 10300 3100
Connection ~ 8475 2775
Connection ~ 9900 3100
Connection ~ 10100 3100
Wire Wire Line
	9525 2725 9525 2450
Wire Wire Line
	9525 2450 10300 2450
Connection ~ 8575 2725
Connection ~ 9900 2450
Connection ~ 10100 2450
Wire Wire Line
	9475 2825 9475 1900
Wire Wire Line
	9900 1800 10300 1800
Connection ~ 8675 2825
Connection ~ 9900 1800
Connection ~ 10100 1800
Wire Wire Line
	7825 1975 8125 1975
Wire Wire Line
	8125 1975 8125 1825
Wire Wire Line
	8125 1825 9575 1825
Connection ~ 9575 1825
Wire Wire Line
	7825 1875 8075 1875
Wire Wire Line
	8075 1875 8075 1775
Wire Wire Line
	8075 1775 9625 1775
Connection ~ 9625 1775
Wire Wire Line
	7825 1775 7825 1725
Wire Wire Line
	7825 1725 9675 1725
Connection ~ 9675 1725
Wire Wire Line
	9475 1900 9900 1900
Wire Wire Line
	9900 1900 9900 1800
Wire Wire Line
	8125 3150 9525 3150
Wire Wire Line
	9525 3150 9525 3750
Wire Wire Line
	7825 3175 7825 3850
Wire Wire Line
	7825 3850 9275 3850
Wire Wire Line
	9275 3850 9275 3775
Wire Wire Line
	8925 3775 8925 3850
Connection ~ 8925 3850
Wire Wire Line
	8550 3775 8550 3850
Connection ~ 8550 3850
Wire Wire Line
	8125 3775 8125 3850
Connection ~ 8125 3850
Wire Wire Line
	8125 3150 8125 3375
Connection ~ 8375 3150
Wire Wire Line
	8550 3375 8550 3100
Connection ~ 8550 3100
Wire Wire Line
	8925 3375 8925 2725
Connection ~ 8925 2725
Wire Wire Line
	9275 3375 9275 2825
Connection ~ 9275 2825
Wire Wire Line
	8825 4225 8775 4225
Wire Wire Line
	8775 3850 8775 4675
Connection ~ 8775 3850
Wire Wire Line
	8775 4675 8825 4675
Connection ~ 8775 4225
Wire Wire Line
	8375 4425 8825 4425
Wire Wire Line
	8825 4875 8700 4875
Wire Wire Line
	8700 4875 8700 3100
Connection ~ 8700 3100
$Comp
L R_Small R2
U 1 1 5A5E846E
P 9600 4425
F 0 "R2" H 9630 4445 50  0000 L CNN
F 1 "1,5K" H 9630 4385 50  0000 L CNN
F 2 "Resistors_SMD:R_0603_HandSoldering" H 9600 4425 50  0001 C CNN
F 3 "" H 9600 4425 50  0001 C CNN
	1    9600 4425
	0    1    1    0   
$EndComp
$Comp
L R_Small R3
U 1 1 5A5E8503
P 9600 4875
F 0 "R3" H 9630 4895 50  0000 L CNN
F 1 "1,5K" H 9630 4835 50  0000 L CNN
F 2 "Resistors_SMD:R_0603_HandSoldering" H 9600 4875 50  0001 C CNN
F 3 "" H 9600 4875 50  0001 C CNN
	1    9600 4875
	0    1    1    0   
$EndComp
$Comp
L GND #PWR01
U 1 1 5A5E8552
P 10075 4775
F 0 "#PWR01" H 10075 4525 50  0001 C CNN
F 1 "GND" H 10075 4625 50  0000 C CNN
F 2 "" H 10075 4775 50  0001 C CNN
F 3 "" H 10075 4775 50  0001 C CNN
	1    10075 4775
	1    0    0    -1  
$EndComp
Wire Wire Line
	9425 4875 9500 4875
Wire Wire Line
	9425 4425 9500 4425
$Comp
L AVR-ISP-6 J3
U 1 1 5A5E8E64
P 3325 3850
F 0 "J3" H 3220 4090 50  0000 C CNN
F 1 "ISP" H 3060 3620 50  0000 L BNN
F 2 "Pin_Headers:Pin_Header_Angled_2x03_Pitch2.54mm" V 2805 3890 50  0001 C CNN
F 3 "" H 3300 3850 50  0001 C CNN
	1    3325 3850
	1    0    0    -1  
$EndComp
$Comp
L JACK_3,5_5PINS_TnT J1
U 1 1 5A5ED11E
P 10550 4500
F 0 "J1" H 10200 4800 50  0000 C CNN
F 1 "JACK_3,5_5PINS_TnT" H 10500 4200 50  0000 C CNN
F 2 "suf_connector_misc:JACK_3,5_5PIN_TnT+2,5_HEADER" H 10650 4350 50  0001 C CNN
F 3 "" H 10650 4350 50  0001 C CNN
	1    10550 4500
	-1   0    0    1   
$EndComp
$Comp
L VCC #PWR02
U 1 1 5A5ED193
P 9475 4100
F 0 "#PWR02" H 9475 3950 50  0001 C CNN
F 1 "VCC" H 9475 4250 50  0000 C CNN
F 2 "" H 9475 4100 50  0001 C CNN
F 3 "" H 9475 4100 50  0001 C CNN
	1    9475 4100
	1    0    0    -1  
$EndComp
Wire Wire Line
	9475 4100 9475 4675
Wire Wire Line
	9475 4675 9425 4675
Wire Wire Line
	9425 4225 9475 4225
Connection ~ 9475 4225
Wire Wire Line
	10150 4700 10075 4700
Wire Wire Line
	10075 4700 10075 4775
Wire Wire Line
	9700 4425 9850 4425
Wire Wire Line
	9850 4425 9850 4300
Wire Wire Line
	9850 4300 10150 4300
Wire Wire Line
	9700 4875 9850 4875
Wire Wire Line
	9850 4875 9850 4500
Wire Wire Line
	9850 4500 10150 4500
$Comp
L GND #PWR03
U 1 1 5A5ED5C2
P 6675 1275
F 0 "#PWR03" H 6675 1025 50  0001 C CNN
F 1 "GND" H 6675 1125 50  0000 C CNN
F 2 "" H 6675 1275 50  0001 C CNN
F 3 "" H 6675 1275 50  0001 C CNN
	1    6675 1275
	1    0    0    -1  
$EndComp
$Comp
L VCC #PWR04
U 1 1 5A5ED600
P 6700 3350
F 0 "#PWR04" H 6700 3200 50  0001 C CNN
F 1 "VCC" H 6700 3500 50  0000 C CNN
F 2 "" H 6700 3350 50  0001 C CNN
F 3 "" H 6700 3350 50  0001 C CNN
	1    6700 3350
	1    0    0    -1  
$EndComp
Wire Wire Line
	6700 3350 6700 3450
Text GLabel 2850 3750 0    40   Input ~ 0
MISO
Text GLabel 2850 3850 0    40   Input ~ 0
SCK
Text GLabel 2850 3950 0    40   Input ~ 0
RST
Text GLabel 3775 3850 2    40   Input ~ 0
MOSI
Text GLabel 4550 3850 2    40   Input ~ 0
RST
Text GLabel 1950 2150 0    40   Input ~ 0
RST
Text GLabel 1950 1650 0    40   Input ~ 0
MOSI
Text GLabel 1950 1750 0    40   Input ~ 0
MISO
Text GLabel 1950 1850 0    40   Input ~ 0
SCK
Text GLabel 6075 2775 0    40   Input ~ 0
MOSI
Text GLabel 6075 2875 0    40   Input ~ 0
SCK
$Comp
L VCC #PWR05
U 1 1 5A5EDF3F
P 3775 3625
F 0 "#PWR05" H 3775 3475 50  0001 C CNN
F 1 "VCC" H 3775 3775 50  0000 C CNN
F 2 "" H 3775 3625 50  0001 C CNN
F 3 "" H 3775 3625 50  0001 C CNN
	1    3775 3625
	1    0    0    -1  
$EndComp
$Comp
L GND #PWR06
U 1 1 5A5EDF75
P 3775 4075
F 0 "#PWR06" H 3775 3825 50  0001 C CNN
F 1 "GND" H 3775 3925 50  0000 C CNN
F 2 "" H 3775 4075 50  0001 C CNN
F 3 "" H 3775 4075 50  0001 C CNN
	1    3775 4075
	1    0    0    -1  
$EndComp
$Comp
L GND #PWR07
U 1 1 5A5EDFAB
P 4475 4175
F 0 "#PWR07" H 4475 3925 50  0001 C CNN
F 1 "GND" H 4475 4025 50  0000 C CNN
F 2 "" H 4475 4175 50  0001 C CNN
F 3 "" H 4475 4175 50  0001 C CNN
	1    4475 4175
	1    0    0    -1  
$EndComp
$Comp
L VCC #PWR08
U 1 1 5A5EDFE1
P 4475 3425
F 0 "#PWR08" H 4475 3275 50  0001 C CNN
F 1 "VCC" H 4475 3575 50  0000 C CNN
F 2 "" H 4475 3425 50  0001 C CNN
F 3 "" H 4475 3425 50  0001 C CNN
	1    4475 3425
	1    0    0    -1  
$EndComp
$Comp
L C_Small C3
U 1 1 5A5EE017
P 4475 4025
F 0 "C3" H 4485 4095 50  0000 L CNN
F 1 "10nF" H 4485 3945 50  0000 L CNN
F 2 "Capacitors_SMD:C_0603_HandSoldering" H 4475 4025 50  0001 C CNN
F 3 "" H 4475 4025 50  0001 C CNN
	1    4475 4025
	1    0    0    -1  
$EndComp
$Comp
L R_Small R1
U 1 1 5A5EE06A
P 4475 3650
F 0 "R1" H 4505 3670 50  0000 L CNN
F 1 "4,7K" H 4505 3610 50  0000 L CNN
F 2 "Resistors_SMD:R_0603_HandSoldering" H 4475 3650 50  0001 C CNN
F 3 "" H 4475 3650 50  0001 C CNN
	1    4475 3650
	1    0    0    -1  
$EndComp
$Comp
L VCC #PWR09
U 1 1 5A5EE0EB
P 4825 1525
F 0 "#PWR09" H 4825 1375 50  0001 C CNN
F 1 "VCC" H 4825 1675 50  0000 C CNN
F 2 "" H 4825 1525 50  0001 C CNN
F 3 "" H 4825 1525 50  0001 C CNN
	1    4825 1525
	1    0    0    -1  
$EndComp
$Comp
L GND #PWR010
U 1 1 5A5EE12F
P 4825 2275
F 0 "#PWR010" H 4825 2025 50  0001 C CNN
F 1 "GND" H 4825 2125 50  0000 C CNN
F 2 "" H 4825 2275 50  0001 C CNN
F 3 "" H 4825 2275 50  0001 C CNN
	1    4825 2275
	1    0    0    -1  
$EndComp
Wire Wire Line
	6525 2775 6675 2775
Wire Wire Line
	6525 2875 6675 2875
Wire Wire Line
	1950 1650 2050 1650
Wire Wire Line
	1950 1750 2050 1750
Wire Wire Line
	1950 1850 2050 1850
Wire Wire Line
	1950 2150 2050 2150
Wire Wire Line
	2850 3750 3175 3750
Wire Wire Line
	2850 3850 3175 3850
Wire Wire Line
	2850 3950 3175 3950
Wire Wire Line
	3425 3850 3775 3850
Wire Wire Line
	3425 3750 3775 3750
Wire Wire Line
	3775 3750 3775 3625
Wire Wire Line
	3425 3950 3775 3950
Wire Wire Line
	3775 3950 3775 4075
Wire Wire Line
	4475 4125 4475 4175
Wire Wire Line
	4475 3750 4475 3925
Wire Wire Line
	4475 3425 4475 3550
Wire Wire Line
	4550 3850 4475 3850
Connection ~ 4475 3850
Wire Wire Line
	4750 2150 4825 2150
Wire Wire Line
	4825 2150 4825 2275
Wire Wire Line
	4750 1650 4825 1650
Wire Wire Line
	4825 1650 4825 1525
$Comp
L Crystal Y1
U 1 1 5A5F766D
P 1425 2600
F 0 "Y1" H 1425 2750 50  0000 C CNN
F 1 "16MHz" H 1425 2450 50  0000 C CNN
F 2 "Crystals:Crystal_SMD_HC49-SD_HandSoldering" H 1425 2600 50  0001 C CNN
F 3 "" H 1425 2600 50  0001 C CNN
	1    1425 2600
	-1   0    0    1   
$EndComp
$Comp
L C_Small C1
U 1 1 5A5F7758
P 1150 2925
F 0 "C1" H 1160 2995 50  0000 L CNN
F 1 "22pF" H 1160 2845 50  0000 L CNN
F 2 "Capacitors_SMD:C_0603_HandSoldering" H 1150 2925 50  0001 C CNN
F 3 "" H 1150 2925 50  0001 C CNN
	1    1150 2925
	1    0    0    -1  
$EndComp
$Comp
L C_Small C2
U 1 1 5A5F77FB
P 1675 2925
F 0 "C2" H 1685 2995 50  0000 L CNN
F 1 "22pF" H 1685 2845 50  0000 L CNN
F 2 "Capacitors_SMD:C_0603_HandSoldering" H 1675 2925 50  0001 C CNN
F 3 "" H 1675 2925 50  0001 C CNN
	1    1675 2925
	1    0    0    -1  
$EndComp
Wire Wire Line
	1675 2050 1675 2825
Wire Wire Line
	1675 2050 2050 2050
Wire Wire Line
	1150 1950 1150 2825
Wire Wire Line
	1150 1950 2050 1950
Wire Wire Line
	1575 2600 1675 2600
Connection ~ 1675 2600
Wire Wire Line
	1275 2600 1150 2600
Connection ~ 1150 2600
$Comp
L GND #PWR011
U 1 1 5A5F7CF8
P 1150 3100
F 0 "#PWR011" H 1150 2850 50  0001 C CNN
F 1 "GND" H 1150 2950 50  0000 C CNN
F 2 "" H 1150 3100 50  0001 C CNN
F 3 "" H 1150 3100 50  0001 C CNN
	1    1150 3100
	1    0    0    -1  
$EndComp
$Comp
L GND #PWR012
U 1 1 5A5F7D38
P 1675 3100
F 0 "#PWR012" H 1675 2850 50  0001 C CNN
F 1 "GND" H 1675 2950 50  0000 C CNN
F 2 "" H 1675 3100 50  0001 C CNN
F 3 "" H 1675 3100 50  0001 C CNN
	1    1675 3100
	1    0    0    -1  
$EndComp
Wire Wire Line
	1150 3025 1150 3100
Wire Wire Line
	1675 3025 1675 3100
$Comp
L Micro_USB_B J2
U 1 1 5A5FB8D7
P 1575 4775
F 0 "J2" H 1375 5225 50  0000 L CNN
F 1 "MicroUSB" H 1375 5125 50  0000 L CNN
F 2 "Connect:USB_Micro-B" H 1725 4725 50  0001 C CNN
F 3 "" H 1725 4725 50  0001 C CNN
	1    1575 4775
	1    0    0    -1  
$EndComp
$Comp
L GND #PWR013
U 1 1 5A5FBC19
P 1950 5050
F 0 "#PWR013" H 1950 4800 50  0001 C CNN
F 1 "GND" H 1950 4900 50  0000 C CNN
F 2 "" H 1950 5050 50  0001 C CNN
F 3 "" H 1950 5050 50  0001 C CNN
	1    1950 5050
	1    0    0    -1  
$EndComp
$Comp
L VCC #PWR014
U 1 1 5A5FBC69
P 1950 4500
F 0 "#PWR014" H 1950 4350 50  0001 C CNN
F 1 "VCC" H 1950 4650 50  0000 C CNN
F 2 "" H 1950 4500 50  0001 C CNN
F 3 "" H 1950 4500 50  0001 C CNN
	1    1950 4500
	1    0    0    -1  
$EndComp
Wire Wire Line
	1875 4575 1950 4575
Wire Wire Line
	1950 4575 1950 4500
$Comp
L GND #PWR015
U 1 1 5A5FBEC1
P 5375 2200
F 0 "#PWR015" H 5375 1950 50  0001 C CNN
F 1 "GND" H 5375 2050 50  0000 C CNN
F 2 "" H 5375 2200 50  0001 C CNN
F 3 "" H 5375 2200 50  0001 C CNN
	1    5375 2200
	1    0    0    -1  
$EndComp
$Comp
L C_Small C4
U 1 1 5A5FBEC7
P 5375 2000
F 0 "C4" H 5385 2070 50  0000 L CNN
F 1 "100nF" H 5385 1920 50  0000 L CNN
F 2 "Capacitors_SMD:C_0603_HandSoldering" H 5375 2000 50  0001 C CNN
F 3 "" H 5375 2000 50  0001 C CNN
	1    5375 2000
	1    0    0    -1  
$EndComp
Wire Wire Line
	5375 2100 5375 2200
Wire Wire Line
	5375 1775 5375 1900
$Comp
L VCC #PWR016
U 1 1 5A5FBF7E
P 5375 1775
F 0 "#PWR016" H 5375 1625 50  0001 C CNN
F 1 "VCC" H 5375 1925 50  0000 C CNN
F 2 "" H 5375 1775 50  0001 C CNN
F 3 "" H 5375 1775 50  0001 C CNN
	1    5375 1775
	1    0    0    -1  
$EndComp
$Comp
L GND #PWR017
U 1 1 5A5FC166
P 5925 2200
F 0 "#PWR017" H 5925 1950 50  0001 C CNN
F 1 "GND" H 5925 2050 50  0000 C CNN
F 2 "" H 5925 2200 50  0001 C CNN
F 3 "" H 5925 2200 50  0001 C CNN
	1    5925 2200
	1    0    0    -1  
$EndComp
$Comp
L C_Small C5
U 1 1 5A5FC16C
P 5925 2000
F 0 "C5" H 5935 2070 50  0000 L CNN
F 1 "100nF" H 5935 1920 50  0000 L CNN
F 2 "Capacitors_SMD:C_0603_HandSoldering" H 5925 2000 50  0001 C CNN
F 3 "" H 5925 2000 50  0001 C CNN
	1    5925 2000
	1    0    0    -1  
$EndComp
Wire Wire Line
	5925 2100 5925 2200
Wire Wire Line
	5925 1775 5925 1900
$Comp
L VCC #PWR018
U 1 1 5A5FC174
P 5925 1775
F 0 "#PWR018" H 5925 1625 50  0001 C CNN
F 1 "VCC" H 5925 1925 50  0000 C CNN
F 2 "" H 5925 1775 50  0001 C CNN
F 3 "" H 5925 1775 50  0001 C CNN
	1    5925 1775
	1    0    0    -1  
$EndComp
Wire Wire Line
	1875 4975 1950 4975
Wire Wire Line
	1950 4975 1950 5050
$Comp
L R_Small R4
U 1 1 5A610841
P 6425 2775
F 0 "R4" H 6275 2825 50  0000 L CNN
F 1 "1K" H 6275 2750 50  0000 L CNN
F 2 "Resistors_SMD:R_0603_HandSoldering" H 6425 2775 50  0001 C CNN
F 3 "" H 6425 2775 50  0001 C CNN
	1    6425 2775
	0    1    1    0   
$EndComp
$Comp
L R_Small R5
U 1 1 5A6109AF
P 6425 2875
F 0 "R5" H 6475 2925 50  0000 L CNN
F 1 "1K" H 6475 2850 50  0000 L CNN
F 2 "Resistors_SMD:R_0603_HandSoldering" H 6425 2875 50  0001 C CNN
F 3 "" H 6425 2875 50  0001 C CNN
	1    6425 2875
	0    1    1    0   
$EndComp
Wire Wire Line
	6075 2775 6325 2775
Wire Wire Line
	6075 2875 6325 2875
Wire Wire Line
	6675 1275 6675 1175
Wire Wire Line
	6675 1175 7275 1175
Wire Wire Line
	7275 1175 7275 1225
Wire Wire Line
	6700 3450 7275 3450
Wire Wire Line
	7275 3450 7275 3425
$EndSCHEMATC
