EESchema Schematic File Version 2
LIBS:power
LIBS:device
LIBS:switches
LIBS:relays
LIBS:motors
LIBS:transistors
LIBS:conn
LIBS:linear
LIBS:regul
LIBS:74xx
LIBS:cmos4000
LIBS:adc-dac
LIBS:memory
LIBS:xilinx
LIBS:microcontrollers
LIBS:dsp
LIBS:microchip
LIBS:analog_switches
LIBS:motorola
LIBS:texas
LIBS:intel
LIBS:audio
LIBS:interface
LIBS:digital-audio
LIBS:philips
LIBS:display
LIBS:cypress
LIBS:siliconi
LIBS:opto
LIBS:atmel
LIBS:contrib
LIBS:valves
LIBS:suf_led_driver
LIBS:suf_led_display
LIBS:suf_conn
LIBS:suf_opto
LIBS:lightronome-board-cache
EELAYER 25 0
EELAYER END
$Descr A4 11693 8268
encoding utf-8
Sheet 1 1
Title ""
Date ""
Rev ""
Comp ""
Comment1 ""
Comment2 ""
Comment3 ""
Comment4 ""
$EndDescr
$Comp
L ATTINY85-20SU U1
U 1 1 5A5C63DF
P 3400 1900
F 0 "U1" H 2250 2300 50  0000 C CNN
F 1 "ATTINY85-20SU" H 4400 1500 50  0000 C CNN
F 2 "Housings_DIP:DIP-8_W7.62mm_LongPads" H 4350 1900 50  0001 C CIN
F 3 "" H 3400 1900 50  0001 C CNN
	1    3400 1900
	1    0    0    -1  
$EndComp
$Comp
L TM1637 U2
U 1 1 5A5C641B
P 7275 2325
F 0 "U2" H 6925 3275 50  0000 C CNN
F 1 "TM1637" H 7025 1375 50  0000 C CNN
F 2 "Housings_DIP:DIP-20_W7.62mm_LongPads" H 7325 2575 60  0001 C CNN
F 3 "" H 7325 2575 60  0001 C CNN
	1    7275 2325
	1    0    0    1   
$EndComp
$Comp
L BA56-12EWA DS1
U 1 1 5A5E60EF
P 8675 2275
F 0 "DS1" V 8199 2075 50  0000 L BNN
F 1 "BA56-12EWA" V 9227 2074 50  0000 L BNN
F 2 "suf_led_display:BA56-12EWA" H 8675 2275 50  0001 L BNN
F 3 "BA56-12EWA" H 8675 2275 50  0001 L BNN
F 4 "2.13 USD" H 8675 2275 50  0001 L BNN "Field4"
F 5 "Good" H 8675 2275 50  0001 L BNN "Field5"
F 6 "DIP-12 Kingbright" H 8675 2275 50  0001 L BNN "Field6"
F 7 "Kingbright" H 8675 2275 50  0001 L BNN "Field7"
F 8 "DISPLAY 627NM RED 3DIG 0.56 TH" H 8675 2275 50  0001 L BNN "Field8"
	1    8675 2275
	1    0    0    -1  
$EndComp
$Comp
L SW_Push SW2
U 1 1 5A5E7965
P 8550 3575
F 0 "SW2" H 8600 3675 50  0000 L CNN
F 1 "SW_Push" H 8550 3515 50  0000 C CNN
F 2 "Buttons_Switches_ThroughHole:SW_PUSH_6mm" H 8550 3775 50  0001 C CNN
F 3 "" H 8550 3775 50  0001 C CNN
	1    8550 3575
	0    1    1    0   
$EndComp
$Comp
L SW_Push SW1
U 1 1 5A5E79BD
P 8125 3575
F 0 "SW1" H 8175 3675 50  0000 L CNN
F 1 "SW_Push" H 8125 3515 50  0000 C CNN
F 2 "Buttons_Switches_ThroughHole:SW_PUSH_6mm" H 8125 3775 50  0001 C CNN
F 3 "" H 8125 3775 50  0001 C CNN
	1    8125 3575
	0    1    1    0   
$EndComp
Wire Wire Line
	7825 2875 8375 2875
Wire Wire Line
	7825 2775 8475 2775
Wire Wire Line
	8475 2675 8475 3100
Wire Wire Line
	7825 2675 7850 2675
Wire Wire Line
	7850 2675 7850 2725
Wire Wire Line
	7850 2725 9525 2725
Wire Wire Line
	8575 2725 8575 2675
Wire Wire Line
	7825 2575 7900 2575
Wire Wire Line
	7900 2575 7900 2825
Wire Wire Line
	7900 2825 9475 2825
Wire Wire Line
	8675 2825 8675 2675
Wire Wire Line
	7825 2475 7950 2475
Wire Wire Line
	7950 2475 7950 2925
Wire Wire Line
	7950 2925 8775 2925
Wire Wire Line
	8775 2925 8775 2675
Wire Wire Line
	7825 2375 8000 2375
Wire Wire Line
	8000 2375 8000 2975
Wire Wire Line
	8000 2975 8875 2975
Wire Wire Line
	8875 2975 8875 2675
Wire Wire Line
	7825 2275 8050 2275
Wire Wire Line
	8050 2275 8050 3025
Wire Wire Line
	8050 3025 8975 3025
Wire Wire Line
	8975 3025 8975 2675
Wire Wire Line
	7825 2175 8175 2175
Wire Wire Line
	8175 2175 8175 1875
Wire Wire Line
	8175 1875 8375 1875
Wire Wire Line
	7825 1475 8975 1475
Wire Wire Line
	8975 1475 8975 1875
Wire Wire Line
	7825 1575 8875 1575
Wire Wire Line
	8875 1575 8875 1875
Wire Wire Line
	7825 1675 8775 1675
Wire Wire Line
	8775 1675 8775 1875
Wire Wire Line
	9900 1400 9900 1350
Wire Wire Line
	9900 1350 9675 1350
Wire Wire Line
	9675 1350 9675 3350
Wire Wire Line
	9900 2050 9675 2050
Connection ~ 9675 2050
Wire Wire Line
	9900 2700 9675 2700
Connection ~ 9675 2700
Wire Wire Line
	9675 3350 9900 3350
Wire Wire Line
	9525 3750 9900 3750
Connection ~ 8375 2875
Wire Wire Line
	8475 3100 9900 3100
Connection ~ 8475 2775
Wire Wire Line
	9525 2725 9525 2450
Wire Wire Line
	9525 2450 9900 2450
Connection ~ 8575 2725
Wire Wire Line
	9475 2825 9475 1900
Connection ~ 8675 2825
Wire Wire Line
	7825 1775 7825 1725
Wire Wire Line
	7825 1725 9675 1725
Connection ~ 9675 1725
Wire Wire Line
	9475 1900 9900 1900
Wire Wire Line
	9900 1900 9900 1700
Wire Wire Line
	8125 3150 9525 3150
Wire Wire Line
	9525 3150 9525 3750
Wire Wire Line
	7825 3175 7825 3850
Wire Wire Line
	8550 3850 8550 3775
Wire Wire Line
	8125 3775 8125 3850
Connection ~ 8125 3850
Wire Wire Line
	8125 3150 8125 3375
Connection ~ 8375 3150
Wire Wire Line
	8550 3375 8550 3100
Connection ~ 8550 3100
$Comp
L AVR-ISP-6 J3
U 1 1 5A5E8E64
P 3325 3850
F 0 "J3" H 3220 4090 50  0000 C CNN
F 1 "ISP" H 3060 3620 50  0000 L BNN
F 2 "Pin_Headers:Pin_Header_Angled_2x03_Pitch2.54mm" V 2805 3890 50  0001 C CNN
F 3 "" H 3300 3850 50  0001 C CNN
	1    3325 3850
	1    0    0    -1  
$EndComp
$Comp
L GND #PWR01
U 1 1 5A5ED5C2
P 7275 3500
F 0 "#PWR01" H 7275 3250 50  0001 C CNN
F 1 "GND" H 7275 3350 50  0000 C CNN
F 2 "" H 7275 3500 50  0001 C CNN
F 3 "" H 7275 3500 50  0001 C CNN
	1    7275 3500
	1    0    0    -1  
$EndComp
$Comp
L VCC #PWR02
U 1 1 5A5ED600
P 7275 1125
F 0 "#PWR02" H 7275 975 50  0001 C CNN
F 1 "VCC" H 7275 1275 50  0000 C CNN
F 2 "" H 7275 1125 50  0001 C CNN
F 3 "" H 7275 1125 50  0001 C CNN
	1    7275 1125
	1    0    0    -1  
$EndComp
Wire Wire Line
	7275 1125 7275 1225
Wire Wire Line
	7275 3425 7275 3500
Text GLabel 2850 3750 0    40   Input ~ 0
MISO
Text GLabel 2850 3850 0    40   Input ~ 0
SCK
Text GLabel 2850 3950 0    40   Input ~ 0
RST
Text GLabel 3775 3850 2    40   Input ~ 0
MOSI
Text GLabel 4550 3850 2    40   Input ~ 0
RST
Text GLabel 1950 2150 0    40   Input ~ 0
RST
Text GLabel 1950 1650 0    40   Input ~ 0
MOSI
Text GLabel 1950 1750 0    40   Input ~ 0
MISO
Text GLabel 1950 1850 0    40   Input ~ 0
SCK
Text GLabel 6075 2775 0    40   Input ~ 0
MOSI
Text GLabel 6075 2875 0    40   Input ~ 0
SCK
$Comp
L VCC #PWR03
U 1 1 5A5EDF3F
P 3775 3625
F 0 "#PWR03" H 3775 3475 50  0001 C CNN
F 1 "VCC" H 3775 3775 50  0000 C CNN
F 2 "" H 3775 3625 50  0001 C CNN
F 3 "" H 3775 3625 50  0001 C CNN
	1    3775 3625
	1    0    0    -1  
$EndComp
$Comp
L GND #PWR04
U 1 1 5A5EDF75
P 3775 4075
F 0 "#PWR04" H 3775 3825 50  0001 C CNN
F 1 "GND" H 3775 3925 50  0000 C CNN
F 2 "" H 3775 4075 50  0001 C CNN
F 3 "" H 3775 4075 50  0001 C CNN
	1    3775 4075
	1    0    0    -1  
$EndComp
$Comp
L GND #PWR05
U 1 1 5A5EDFAB
P 4475 4175
F 0 "#PWR05" H 4475 3925 50  0001 C CNN
F 1 "GND" H 4475 4025 50  0000 C CNN
F 2 "" H 4475 4175 50  0001 C CNN
F 3 "" H 4475 4175 50  0001 C CNN
	1    4475 4175
	1    0    0    -1  
$EndComp
$Comp
L VCC #PWR06
U 1 1 5A5EDFE1
P 4475 3425
F 0 "#PWR06" H 4475 3275 50  0001 C CNN
F 1 "VCC" H 4475 3575 50  0000 C CNN
F 2 "" H 4475 3425 50  0001 C CNN
F 3 "" H 4475 3425 50  0001 C CNN
	1    4475 3425
	1    0    0    -1  
$EndComp
$Comp
L C_Small C3
U 1 1 5A5EE017
P 4475 4025
F 0 "C3" H 4485 4095 50  0000 L CNN
F 1 "10nF" H 4485 3945 50  0000 L CNN
F 2 "Capacitors_ThroughHole:C_Disc_D3.0mm_W1.6mm_P2.50mm" H 4475 4025 50  0001 C CNN
F 3 "" H 4475 4025 50  0001 C CNN
	1    4475 4025
	1    0    0    -1  
$EndComp
$Comp
L R_Small R1
U 1 1 5A5EE06A
P 4475 3650
F 0 "R1" H 4505 3670 50  0000 L CNN
F 1 "4,7K" H 4505 3610 50  0000 L CNN
F 2 "Resistors_ThroughHole:R_Axial_DIN0207_L6.3mm_D2.5mm_P10.16mm_Horizontal" H 4475 3650 50  0001 C CNN
F 3 "" H 4475 3650 50  0001 C CNN
	1    4475 3650
	1    0    0    -1  
$EndComp
$Comp
L VCC #PWR07
U 1 1 5A5EE0EB
P 4825 1525
F 0 "#PWR07" H 4825 1375 50  0001 C CNN
F 1 "VCC" H 4825 1675 50  0000 C CNN
F 2 "" H 4825 1525 50  0001 C CNN
F 3 "" H 4825 1525 50  0001 C CNN
	1    4825 1525
	1    0    0    -1  
$EndComp
$Comp
L GND #PWR08
U 1 1 5A5EE12F
P 4825 2275
F 0 "#PWR08" H 4825 2025 50  0001 C CNN
F 1 "GND" H 4825 2125 50  0000 C CNN
F 2 "" H 4825 2275 50  0001 C CNN
F 3 "" H 4825 2275 50  0001 C CNN
	1    4825 2275
	1    0    0    -1  
$EndComp
Wire Wire Line
	6525 2775 6675 2775
Wire Wire Line
	6525 2875 6675 2875
Wire Wire Line
	1950 1650 2050 1650
Wire Wire Line
	1950 1750 2050 1750
Wire Wire Line
	1950 1850 2050 1850
Wire Wire Line
	1950 2150 2050 2150
Wire Wire Line
	2850 3750 3175 3750
Wire Wire Line
	2850 3850 3175 3850
Wire Wire Line
	2850 3950 3175 3950
Wire Wire Line
	3425 3850 3775 3850
Wire Wire Line
	3425 3750 3775 3750
Wire Wire Line
	3775 3750 3775 3625
Wire Wire Line
	3425 3950 3775 3950
Wire Wire Line
	3775 3950 3775 4075
Wire Wire Line
	4475 4125 4475 4175
Wire Wire Line
	4475 3750 4475 3925
Wire Wire Line
	4475 3425 4475 3550
Wire Wire Line
	4550 3850 4475 3850
Connection ~ 4475 3850
Wire Wire Line
	4750 2150 4825 2150
Wire Wire Line
	4825 2150 4825 2275
Wire Wire Line
	4750 1650 4825 1650
Wire Wire Line
	4825 1650 4825 1525
$Comp
L USB_B J2
U 1 1 5A5FB8D7
P 1575 4775
F 0 "J2" H 1375 5225 50  0000 L CNN
F 1 "USB" H 1375 5125 50  0000 L CNN
F 2 "Connect:USB_B" H 1725 4725 50  0001 C CNN
F 3 "" H 1725 4725 50  0001 C CNN
	1    1575 4775
	1    0    0    -1  
$EndComp
$Comp
L GND #PWR09
U 1 1 5A5FBC19
P 1575 5250
F 0 "#PWR09" H 1575 5000 50  0001 C CNN
F 1 "GND" H 1575 5100 50  0000 C CNN
F 2 "" H 1575 5250 50  0001 C CNN
F 3 "" H 1575 5250 50  0001 C CNN
	1    1575 5250
	1    0    0    -1  
$EndComp
$Comp
L VCC #PWR010
U 1 1 5A5FBC69
P 1950 4500
F 0 "#PWR010" H 1950 4350 50  0001 C CNN
F 1 "VCC" H 1950 4650 50  0000 C CNN
F 2 "" H 1950 4500 50  0001 C CNN
F 3 "" H 1950 4500 50  0001 C CNN
	1    1950 4500
	1    0    0    -1  
$EndComp
Wire Wire Line
	1875 4575 1950 4575
Wire Wire Line
	1950 4575 1950 4500
$Comp
L GND #PWR011
U 1 1 5A5FBEC1
P 5375 2200
F 0 "#PWR011" H 5375 1950 50  0001 C CNN
F 1 "GND" H 5375 2050 50  0000 C CNN
F 2 "" H 5375 2200 50  0001 C CNN
F 3 "" H 5375 2200 50  0001 C CNN
	1    5375 2200
	1    0    0    -1  
$EndComp
$Comp
L C_Small C4
U 1 1 5A5FBEC7
P 5375 2000
F 0 "C4" H 5385 2070 50  0000 L CNN
F 1 "100nF" H 5385 1920 50  0000 L CNN
F 2 "Capacitors_ThroughHole:C_Disc_D3.0mm_W1.6mm_P2.50mm" H 5375 2000 50  0001 C CNN
F 3 "" H 5375 2000 50  0001 C CNN
	1    5375 2000
	1    0    0    -1  
$EndComp
Wire Wire Line
	5375 2100 5375 2200
Wire Wire Line
	5375 1775 5375 1900
$Comp
L VCC #PWR012
U 1 1 5A5FBF7E
P 5375 1775
F 0 "#PWR012" H 5375 1625 50  0001 C CNN
F 1 "VCC" H 5375 1925 50  0000 C CNN
F 2 "" H 5375 1775 50  0001 C CNN
F 3 "" H 5375 1775 50  0001 C CNN
	1    5375 1775
	1    0    0    -1  
$EndComp
$Comp
L GND #PWR013
U 1 1 5A5FC166
P 5925 2200
F 0 "#PWR013" H 5925 1950 50  0001 C CNN
F 1 "GND" H 5925 2050 50  0000 C CNN
F 2 "" H 5925 2200 50  0001 C CNN
F 3 "" H 5925 2200 50  0001 C CNN
	1    5925 2200
	1    0    0    -1  
$EndComp
$Comp
L C_Small C5
U 1 1 5A5FC16C
P 5925 2000
F 0 "C5" H 5935 2070 50  0000 L CNN
F 1 "100nF" H 5935 1920 50  0000 L CNN
F 2 "Capacitors_ThroughHole:C_Disc_D3.0mm_W1.6mm_P2.50mm" H 5925 2000 50  0001 C CNN
F 3 "" H 5925 2000 50  0001 C CNN
	1    5925 2000
	1    0    0    -1  
$EndComp
Wire Wire Line
	5925 2100 5925 2200
Wire Wire Line
	5925 1775 5925 1900
$Comp
L VCC #PWR014
U 1 1 5A5FC174
P 5925 1775
F 0 "#PWR014" H 5925 1625 50  0001 C CNN
F 1 "VCC" H 5925 1925 50  0000 C CNN
F 2 "" H 5925 1775 50  0001 C CNN
F 3 "" H 5925 1775 50  0001 C CNN
	1    5925 1775
	1    0    0    -1  
$EndComp
Wire Wire Line
	1575 5175 1575 5250
$Comp
L R_Small R4
U 1 1 5A610841
P 6425 2775
F 0 "R4" H 6275 2825 50  0000 L CNN
F 1 "1K" H 6275 2750 50  0000 L CNN
F 2 "Resistors_ThroughHole:R_Axial_DIN0207_L6.3mm_D2.5mm_P10.16mm_Horizontal" H 6425 2775 50  0001 C CNN
F 3 "" H 6425 2775 50  0001 C CNN
	1    6425 2775
	0    1    1    0   
$EndComp
$Comp
L R_Small R5
U 1 1 5A6109AF
P 6425 2875
F 0 "R5" H 6475 2925 50  0000 L CNN
F 1 "1K" H 6475 2850 50  0000 L CNN
F 2 "Resistors_ThroughHole:R_Axial_DIN0207_L6.3mm_D2.5mm_P10.16mm_Horizontal" H 6425 2875 50  0001 C CNN
F 3 "" H 6425 2875 50  0001 C CNN
	1    6425 2875
	0    1    1    0   
$EndComp
Wire Wire Line
	6075 2775 6325 2775
Wire Wire Line
	6075 2875 6325 2875
Wire Wire Line
	8375 2675 8375 3150
Wire Wire Line
	7825 3850 8550 3850
$Comp
L LED D1
U 1 1 5A618045
P 9900 1550
F 0 "D1" H 9900 1650 50  0000 C CNN
F 1 "LED" H 9900 1450 50  0000 C CNN
F 2 "LEDs:LED_D5.0mm" H 9900 1550 50  0001 C CNN
F 3 "" H 9900 1550 50  0001 C CNN
	1    9900 1550
	0    -1   -1   0   
$EndComp
$Comp
L LED D2
U 1 1 5A61821D
P 9900 2200
F 0 "D2" H 9900 2300 50  0000 C CNN
F 1 "LED" H 9900 2100 50  0000 C CNN
F 2 "LEDs:LED_D5.0mm" H 9900 2200 50  0001 C CNN
F 3 "" H 9900 2200 50  0001 C CNN
	1    9900 2200
	0    -1   -1   0   
$EndComp
$Comp
L LED D3
U 1 1 5A61828F
P 9900 2850
F 0 "D3" H 9900 2950 50  0000 C CNN
F 1 "LED" H 9900 2750 50  0000 C CNN
F 2 "LEDs:LED_D5.0mm" H 9900 2850 50  0001 C CNN
F 3 "" H 9900 2850 50  0001 C CNN
	1    9900 2850
	0    -1   -1   0   
$EndComp
$Comp
L LED D4
U 1 1 5A618318
P 9900 3500
F 0 "D4" H 9900 3600 50  0000 C CNN
F 1 "LED" H 9900 3400 50  0000 C CNN
F 2 "LEDs:LED_D5.0mm" H 9900 3500 50  0001 C CNN
F 3 "" H 9900 3500 50  0001 C CNN
	1    9900 3500
	0    -1   -1   0   
$EndComp
Wire Wire Line
	9900 2450 9900 2350
Wire Wire Line
	9900 3100 9900 3000
Wire Wire Line
	9900 3750 9900 3650
$EndSCHEMATC
